<svg xmlns="http://www.w3.org/2000/svg" xmlns:xlink="http://www.w3.org/1999/xlink" width="102.306" height="109.039" viewBox="0 0 102.306 109.039">
  <defs>
    <linearGradient id="linear-gradient" x1="1" y1="0.831" x2="0.39" y2="0.262" gradientUnits="objectBoundingBox">
      <stop offset="0" stop-color="#453192"/>
      <stop offset="1" stop-color="#2c61ae"/>
    </linearGradient>
    <filter id="Path_1" x="19.241" y="0" width="83.065" height="109.039" filterUnits="userSpaceOnUse">
      <feOffset dy="3" input="SourceAlpha"/>
      <feGaussianBlur stdDeviation="3" result="blur"/>
      <feFlood flood-opacity="0.161"/>
      <feComposite operator="in" in2="blur"/>
      <feComposite in="SourceGraphic"/>
    </filter>
    <filter id="Path_2" x="0" y="20.155" width="62.575" height="55.632" filterUnits="userSpaceOnUse">
      <feOffset dy="3" input="SourceAlpha"/>
      <feGaussianBlur stdDeviation="3" result="blur-2"/>
      <feFlood flood-opacity="0.161"/>
      <feComposite operator="in" in2="blur-2"/>
      <feComposite in="SourceGraphic"/>
    </filter>
  </defs>
  <g id="_7VsEHA.tif" data-name="7VsEHA.tif" transform="translate(458.275 -288.987)">
    <g id="Group_4" data-name="Group 4" transform="translate(-449.275 294.987)">
      <g transform="matrix(1, 0, 0, 1, -9, -6)" filter="url(#Path_1)">
        <path id="Path_1-2" data-name="Path 1" d="M-344.463,301.561H-395.4v6.353h-6.666a66.261,66.261,0,0,1,.5-8.334,5.874,5.874,0,0,1,5.987-4.566q26.083-.048,52.167,0a6.31,6.31,0,0,1,6.386,6.532q.048,33.623,0,67.246a6.033,6.033,0,0,1-3.848,5.958c-9.317,3.814-18.68,7.514-28.028,11.251a2.132,2.132,0,0,1-.568.006V373.243h-3.756q-10.656.005-21.313.009c-4.866-.005-7.411-2.538-7.436-7.368-.009-1.818,0-3.637,0-5.569h6.417v6.291h26.071V349.682c0-11.14.021-22.279-.028-33.419a2.355,2.355,0,0,1,1.5-2.488c7.339-3.618,14.64-7.313,21.951-10.987.58-.292,1.146-.613,1.718-.921Z" transform="translate(430.31 -288.99)" fill="url(#linear-gradient)"/>
      </g>
      <g transform="matrix(1, 0, 0, 1, -9, -6)" filter="url(#Path_2)">
        <path id="Path_2-2" data-name="Path 2" d="M-449.275,356.853h25.8V344.438L-404.7,363.36l-18.633,18.71V370.047h-25.941Z" transform="translate(458.28 -318.28)" fill="url(#linear-gradient)"/>
      </g>
    </g>
  </g>
</svg>
