<svg xmlns="http://www.w3.org/2000/svg" xmlns:xlink="http://www.w3.org/1999/xlink" width="24" height="49" viewBox="0 0 24 49">
  <defs>
    <clipPath id="clip-path">
      <rect id="Rectangle_291" data-name="Rectangle 291" width="24" height="49" transform="translate(10341 5929)" fill="#fff"/>
    </clipPath>
    <filter id="Subtraction_10" x="-961.5" y="-264.5" width="1053" height="586.001" filterUnits="userSpaceOnUse">
      <feOffset dy="3" input="SourceAlpha"/>
      <feGaussianBlur stdDeviation="22.5" result="blur"/>
      <feFlood flood-color="#2c61ae" flood-opacity="0.161"/>
      <feComposite operator="in" in2="blur"/>
      <feComposite in="SourceGraphic"/>
    </filter>
  </defs>
  <g id="right" transform="translate(10365 5978) rotate(180)" clip-path="url(#clip-path)">
    <g id="Group_143" data-name="Group 143" transform="translate(9659 5206)">
      <g transform="matrix(-1, 0, 0, -1, 706, 772)" filter="url(#Subtraction_10)">
        <path id="Subtraction_10-2" data-name="Subtraction 10" d="M-7021-2919h-918v-203.461h.006a20.849,20.849,0,0,0,8.167-1.65,20.921,20.921,0,0,0,6.675-4.5,20.937,20.937,0,0,0,4.5-6.675,20.872,20.872,0,0,0,1.65-8.174,20.872,20.872,0,0,0-1.65-8.174,20.934,20.934,0,0,0-4.5-6.675,20.922,20.922,0,0,0-6.675-4.5,20.868,20.868,0,0,0-8.173-1.651V-3370h918v205.539l-.009,0a20.893,20.893,0,0,0-8.166,1.648,20.983,20.983,0,0,0-6.674,4.5,20.935,20.935,0,0,0-4.5,6.676,20.853,20.853,0,0,0-1.65,8.173,20.854,20.854,0,0,0,1.65,8.173,20.941,20.941,0,0,0,4.5,6.676,20.994,20.994,0,0,0,6.674,4.5,20.882,20.882,0,0,0,8.175,1.65V-2919h0Z" transform="translate(-7915 -3119) rotate(180)" fill="#fff"/>
      </g>
      <text id="_" data-name="" transform="translate(1140.998 641)" fill="#07d39c" font-size="96" font-family="FontAwesome6Pro-Solid, 'Font Awesome \36  Pro'"><tspan x="-48" y="0"></tspan></text>
      <line id="Line_32" data-name="Line 32" x2="787" transform="translate(747.498 746.5)" fill="none" stroke="#707070" stroke-width="1" stroke-dasharray="5 5"/>
      <text id="Supplemental_Application_" data-name="Supplemental Application	" transform="translate(1140.998 706)" fill="#07d39c" font-size="36" font-family="Roboto-Medium, Roboto" font-weight="500"><tspan x="-216" y="0">Supplemental Application	</tspan></text>
      <g id="Group_142" data-name="Group 142" transform="translate(-116.002 23.5)">
        <g id="Rectangle_289" data-name="Rectangle 289" transform="translate(1137 806)" fill="#2c61ae" stroke="#2c61ae" stroke-width="2">
          <rect width="240" height="58" stroke="none"/>
          <rect x="1" y="1" width="238" height="56" fill="none"/>
        </g>
        <g id="Rectangle_290" data-name="Rectangle 290" transform="translate(1137 795)" fill="#fff" stroke="#2c61ae" stroke-width="2">
          <rect width="80" height="80" stroke="none"/>
          <rect x="1" y="1" width="78" height="78" fill="none"/>
        </g>
        <text id="Download" transform="translate(1223 825)" fill="#fff" font-size="18" font-family="Roboto-Bold, Roboto" font-weight="700" letter-spacing="0.08em"><tspan x="-53.947" y="17">DOWNLOAD</tspan></text>
        <g id="J7EOzY.tif" transform="translate(1685.033 621.068)">
          <g id="Group_141" data-name="Group 141" transform="translate(-528.033 191.932)">
            <path id="Path_100" data-name="Path 100" d="M-430.046,219.549v8.127h-6.061c0,.731-.014,1.4.012,2.072a.736.736,0,0,0,.247.4c.912.927,1.832,1.845,2.749,2.767.124.125.24.258.447.482h-2.064q-6.181,0-12.361,0a2.7,2.7,0,0,1-2.932-2.944q0-8.764,0-17.529v-.647h1.325q5.713,0,11.425.008a2.651,2.651,0,0,0,2.777-2.71q.036-4.56,0-9.12a2.646,2.646,0,0,0-2.926-2.831q-6.015,0-12.03.006c-.162,0-.324-.017-.622-.033a33.75,33.75,0,0,1,.212-3.769,2.43,2.43,0,0,1,2.574-1.879c2.6-.013,5.2-.013,7.8-.013q4.834,0,9.668.01c.162,0,.324.013.559.024v8.487h8.508v27.2h-.817v-8.1Z" transform="translate(458.648 -191.932)" fill="#2c61ae"/>
            <path id="Path_101" data-name="Path 101" d="M-516.863,270.524q-4.12,0-8.24,0a2.66,2.66,0,0,1-2.921-2.879q-.011-2.665-.008-5.329a2.705,2.705,0,0,1,3-2.985q8.185,0,16.37,0a2.7,2.7,0,0,1,2.979,3c-.008,1.795,0,3.589,0,5.384a2.639,2.639,0,0,1-2.826,2.8q-4.175,0-8.35,0Zm-2.2-8.447v5.8c.9,0,1.759.035,2.616-.009a2.146,2.146,0,0,0,2.084-1.653,4.145,4.145,0,0,0-.042-2.647,1.942,1.942,0,0,0-1.679-1.471C-517.063,262.017-518.052,262.077-519.064,262.077Zm-5.48,0v5.78h1.153v-2.131c.709-.051,1.351-.054,1.978-.153a1.645,1.645,0,0,0,1.327-1.814,1.54,1.54,0,0,0-1.411-1.668C-522.5,262.026-523.5,262.076-524.544,262.076Zm15.372-.016h-3.954v5.786h1.178v-2.487h2.376v-.983h-2.377v-1.365h2.777Z" transform="translate(528.033 -251.912)" fill="#2c61ae"/>
            <path id="Path_102" data-name="Path 102" d="M-294.719,470.95h5.084v-8.109h4.124v8.117h5.133c-.162.184-.238.279-.322.365q-3.017,3.081-6.036,6.159c-.578.589-1.052.612-1.6.052q-3.121-3.17-6.226-6.356A2.222,2.222,0,0,1-294.719,470.95Z" transform="translate(320.402 -433.02)" fill="#2c61ae"/>
            <path id="Path_103" data-name="Path 103" d="M-242.705,192.876l6.383,6.4h-6.383Z" transform="translate(274.113 -192.772)" fill="#2c61ae"/>
            <path id="Path_104" data-name="Path 104" d="M-436.911,296.105c0-1.176-.007-2.375.012-3.574,0-.1.181-.3.27-.293a5.185,5.185,0,0,1,1.5.184,1.178,1.178,0,0,1,.671.77,7.981,7.981,0,0,1,0,2.142c-.084.6-.518.842-1.147.844-.383,0-.766,0-1.149-.01A.636.636,0,0,1-436.911,296.105Z" transform="translate(446.942 -281.197)" fill="#2c61ae"/>
            <path id="Path_105" data-name="Path 105" d="M-485.618,294.6v-1.667c.441,0,.857-.023,1.269.006a.757.757,0,0,1,.784.759.721.721,0,0,1-.71.813C-484.706,294.555-485.14,294.568-485.618,294.6Z" transform="translate(490.287 -281.806)" fill="#2c61ae"/>
          </g>
        </g>
      </g>
    </g>
  </g>
</svg>
